{
  "model": "Personnel",
  "settings": {
    "i18n": {
      "el": {
        "Personnel category": "Κατηγορία μέλους προσωπικού",
        "Personnel status": "Κατάσταση μέλους προσωπικού",
        "Transfer the existing contact information (Person), if a related entity exists for the user (e.g. Instructor, Student etc)": "Να ταυτιστούν τα στοιχεία της επαφής (Person) του μέλους προσωπικού με αυτά της οντότητας με την οποία πιθανώς να συνδέεται ο χρήστης (πχ Διδάσκοντας, Φοιτητής κτλ)."
      }
    }
  },
  "components": [
    {
      "key": "fieldSet",
      "type": "fieldset",
      "input": false,
      "components": [
        {
          "columns": [
            {
              "components": [
                {
                  "label": "Personnel category",
                  "labelPosition": "top",
                  "dataSrc": "url",
                  "data": {
                    "url": "PersonnelCategoryTypes?$top=-1",
                    "headers": []
                  },
                  "validate": {
                    "required": true
                  },
                  "template": "{{item.name}}",
                  "selectValues": "value",
                  "widget": "choicesjs",
                  "key": "category",
                  "dataType": "object",
                  "idPath": "id",
                  "type": "select",
                  "input": true,
                  "lazyLoad": true,
                  "customClass": "formio-component-select-wrap"
                }
              ],
              "width": 8
            },
            {
              "components": [
                {
                  "label": "Personnel status",
                  "labelPosition": "top",
                  "dataSrc": "url",
                  "data": {
                    "url": "PersonnelStatusTypes?$top=-1",
                    "headers": []
                  },
                  "validate": {
                    "required": true
                  },
                  "template": "{{item.name}}",
                  "selectValues": "value",
                  "widget": "choicesjs",
                  "key": "status",
                  "valueProperty": "alternateName",
                  "type": "select",
                  "input": true,
                  "lazyLoad": false,
                  "defaultValue": "active",
                  "customClass": "formio-component-select-wrap"
                }
              ],
              "width": 8
            },
            {
              "components": [
                {
                  "label": "Transfer the existing contact information (Person), if a related entity exists for the user (e.g. Instructor, Student etc)",
                  "defaultValue": true,
                  "validate": {
                    "unique": false,
                    "multiple": false
                  },
                  "key": "transferExistingPerson",
                  "type": "checkbox",
                  "input": true,
                  "customClass": "mt-2"
                }
              ],
              "width": 12
            }
          ],
          "customClass": "text-dark",
          "hideLabel": true,
          "type": "columns",
          "input": false
        }
      ]
    }
  ]
}
