{
    "model": "Users",
    "settings": {
      "i18n": {
        "el": {
          "Create User": "Δημιουργία Χρήστη",
          "Active User": "Είναι ενεργός",
          "Set the name of this user. If a user with this name already exists, the record will be updated.": "Ορίστε το όνομα του χρήστη. Εαν ήδη υπάρχει χρήστης με αυτό το όνομα, η εγγραφή του θα ενημερωθεί με τα στοιχεία αυτής της φόρμας.",
          "Set an alternative name for this user (e.g. full name)": "Ορίστε ένα εναλλακτικό όνομα για το χρήστη (π.χ. ονοματεπώνυμο).",
          "Select if the user will be enabled.": "Επιλέξτε εάν ο χρήστης θα είναι ενεργός.",
          "Alternative Name" : "Εναλλακτικό όνομα χρήστη",
          "Name" : "Όνομα Χρήστη",
          "Description": "Περιγραφή",
          "Add a short description for the user": "Εισάγετε μία σύντομη περιγραφή για τον χρήστη.",
          "Please use a valid username which may contain numeric, latin characters, any character of ._+- or a valid email address.": "Εισάγετε ένα έγκυρο όνομα χρήστη που μπορεί να περιέχει αριθμούς, λατινικούς χαρακτήρες, οποιονδήποτε χαρακτήρα από τους ._+- ή μια έγκυρη διεύθυνση email."
        }
      }
    },
    "components": [
      {
        "legend": "Create User",
        "key": "fieldSet",
        "type": "fieldset",
        "input": false,
        "label": "User Edit",
        "components": [
          {
            "columns": [
              {
                "components": [
                  {
                    "label": "Name",
                    "labelPosition": "top",
                    "widget": {
                      "type": "input"
                    },
                    "validate": {
                      "pattern": "^[a-zA-Z0-9._%+-]+(@[a-zA-Z0-9.-]+\\.[a-zA-Z]{2,})?$",
                      "customMessage": "Please use a valid username which may contain numeric, latin characters, any character of ._+- or a valid email address.",
                      "required": true
                    },
                    "key": "name",
                    "type": "textfield",
                    "input": true,
                    "description": "Set the name of this user. If a user with this name already exists, the record will be updated."
                  }
                ],
                "width": 6
              },
              {
                "components": [
                  {
                    "label": "Alternative Name",
                    "labelPosition": "top",
                    "widget": {
                      "type": "input"
                    },
                    "validate": {
                      "required": true
                    },
                    "key": "alternateName",
                    "type": "textfield",
                    "description": "Set an alternative name for this user (e.g. full name)",
                    "input": true
                  }
                ],
                "width": 6
              },
              {
                "components": [
                  {
                    "label": "Active User",
                    "labelPosition": "top",
                    "searchEnabled": false,
                    "data": {
                      "values": [
                        {
                          "label": "No",
                          "value": "false"
                        },
                        {
                          "label": "Yes",
                          "value": "true"
                        }
                      ]
                    },
                    "key": "enabled",
                    "dataType": "boolean",
                    "type": "select",
                    "input": true,
                    "validate": {
                      "required": true
                    },
                    "defaultValue": "true",
                    "description": "Select if the user will be enabled."
                  }
                ],
                "width": 2
              },
              {
                "components": [
                  {
                    "label": "Description",
                    "labelPosition": "top",
                    "widget": {
                      "type": "input"
                    },
                    "validate": {
                      "required": false
                    },
                    "key": "description",
                    "type": "textfield",
                    "description": "Add a short description for the user",
                    "input": true
                  }
                ],
                "width": 10
              }
            ],
            "customClass": "text-dark",
            "hideLabel": true,
            "type": "columns",
            "input": false
          }
        ]
      },
      {
        "key": "$state",
        "defaultValue": 1,
        "type": "number",
        "input": true,
        "clearOnHide": false,
        "hidden": true
      },
      {
        "type": "button",
        "theme": "btn btn-indigo",
        "label": "Submit",
        "key": "submit",
        "disableOnInvalid": true,
        "input": true
      }
    ]
  }
  
  