{
  "model": "Personnels",
  "settings": {
    "i18n": {
      "el": {
        "Alternate Email": "Εναλλακτικό email",
        "Input the personnels's home phone number. It must contain the country code.": "Πληκτρολογήστε το σταθερό τηλέφωνο του μέλους προσωπικού. Πρέπει να περιέχει και τον κωδικό χώρας.",
        "Input the personnel's mobile phone number. It must contain the country code.": "Πληκτρολογήστε το κινητό τηλέφωνο του μέλους προσωπικού. Πρέπει να περιέχει και τον κωδικό χώρας.",
        "Personnel information": "Στοιχεία ιδιότητας"
      }
    }
  },
  "components": [
    {
      "components": [
        {
          "legend": "Personal Information",
          "key": "fieldset",
          "type": "fieldset",
          "input": false,
          "components": [
            {
              "columns": [
                {
                  "components": [
                    {
                      "label": "Given Name",
                      "key": "person.givenName",
                      "labelPosition": "top",
                      "widget": {
                        "type": "input"
                      },
                      "validate": {
                        "required": true
                      },
                      "type": "textfield",
                      "input": true
                    }
                  ],
                  "width": 5,
                  "offset": 0,
                  "push": 0,
                  "pull": 0
                },
                {
                  "components": [
                    {
                      "label": "Family Name",
                      "labelPosition": "top",
                      "widget": "choicesjs",
                      "selectValues": "value",
                      "type": "textfield",
                      "key": "person.familyName",
                      "input": true,
                      "validate": {
                        "required": true
                      }
                    }
                  ],
                  "width": 5,
                  "offset": 0,
                  "push": 0,
                  "pull": 0
                },
                {
                  "components": [
                    {
                      "label": "Gender",
                      "labelPosition": "top",
                      "dataSrc": "url",
                      "data": {
                        "url": "Genders?$filter=identifier ne null",
                        "headers": []
                      },
                      "template": "{{ item.name }}",
                      "key": "person.gender",
                      "type": "select",
                      "input": true,
                      "selectValues": "value",
                      "valueProperty": "identifier",
                      "widget": "choicesjs",
                      "searchEnabled": false,
                      "validate": {
                        "required": true
                      },
                      "lazyLoad": false
                    }
                  ],
                  "width": 2,
                  "offset": 0,
                  "push": 0,
                  "pull": 0
                }
              ],
              "customClass": "text-dark",
              "hideLabel": true,
              "type": "columns",
              "input": false
            }
          ]
        },
        {
          "legend": "Contact Details",
          "key": "fieldset",
          "type": "fieldset",
          "input": false,
          "components": [
            {
              "columns": [
                {
                  "components": [
                    {
                      "label": "Phone",
                      "labelPosition": "top",
                      "spellcheck": true,
                      "widget": {
                        "type": "input"
                      },
                      "inputMask": "+999999999999",
                      "key": "person.homePhone",
                      "type": "phoneNumber",
                      "input": true,
                      "description": "Input the personnels's home phone number. It must contain the country code."
                    }
                  ],
                  "width": 6,
                  "offset": 0,
                  "push": 0,
                  "pull": 0
                },
                {
                  "components": [
                    {
                      "label": "Mobile Phone",
                      "labelPosition": "top",
                      "type": "phoneNumber",
                      "inputMask": "+999999999999",
                      "input": true,
                      "selectValues": "value",
                      "key": "person.mobilePhone",
                      "widget": "choicesjs",
                      "description": "Input the personnel's mobile phone number. It must contain the country code."
                    }
                  ],
                  "width": 6,
                  "offset": 0,
                  "push": 0,
                  "pull": 0
                },
                {
                  "components": [
                    {
                      "label": "Email",
                      "labelPosition": "top",
                      "type": "email",
                      "input": true,
                      "selectValues": "value",
                      "key": "person.email",
                      "widget": "choicesjs"
                    }
                  ],
                  "width": 6,
                  "offset": 0,
                  "push": 0,
                  "pull": 0
                },
                {
                  "components": [
                    {
                      "label": "Alternate Email",
                      "labelPosition": "top",
                      "type": "email",
                      "input": true,
                      "key": "person.alternateEmail",
                      "widget": {
                        "type": "input"
                      }
                    }
                  ],
                  "width": 6,
                  "offset": 0,
                  "push": 0,
                  "pull": 0
                }
              ],
              "customClass": "text-dark",
              "hideLabel": true,
              "type": "columns",
              "input": false
            }
          ]
        },
        {
          "legend": "Personnel information",
          "key": "fieldSet",
          "type": "fieldset",
          "input": false,
          "label": "Personnel information",
          "components": [
            {
              "columns": [
                {
                  "components": [
                    {
                      "label": "Category",
                      "labelPosition": "top",
                      "dataSrc": "url",
                      "data": {
                        "url": "PersonnelCategoryTypes?$top=-1",
                        "headers": []
                      },
                      "template": "{{ item.name }}",
                      "key": "category",
                      "type": "select",
                      "input": true,
                      "selectValues": "value",
                      "valueProperty": "id",
                      "widget": "choicesjs",
                      "searchEnabled": false,
                      "validate": {
                        "required": true
                      },
                      "lazyLoad": false
                    }
                  ],
                  "width": 6,
                  "offset": 0,
                  "push": 0,
                  "pull": 0
                },
                {
                  "components": [
                    {
                      "label": "Status",
                      "labelPosition": "top",
                      "dataSrc": "url",
                      "data": {
                        "url": "PersonnelStatusTypes?$top=-1",
                        "headers": []
                      },
                      "template": "{{ item.name }}",
                      "key": "status",
                      "type": "select",
                      "input": true,
                      "selectValues": "value",
                      "valueProperty": "id",
                      "widget": "choicesjs",
                      "searchEnabled": false,
                      "validate": {
                        "required": true
                      },
                      "lazyLoad": false
                    }
                  ],
                  "width": 6,
                  "offset": 0,
                  "push": 0,
                  "pull": 0
                }
              ],
              "customClass": "text-dark",
              "hideLabel": true,
              "type": "columns",
              "input": false
            }
          ]
        }
      ]
    },
    {
      "type": "button",
      "theme": "btn btn-indigo",
      "label": "Submit",
      "key": "submit",
      "disableOnInvalid": true,
      "input": true
    }
  ]
}
