{
  "settings": {
    "i18n": {
      "el": {
        "Read": "Ανάγνωση",
        "Create": "Επεξεργασία",
        "Update": "Ενημέρωση",
        "Delete": "Διαγραφή",
        "Execute": "Εκτέλεση",
        "Select the actions that the selected privileges will permit to the users": "Επιλέξτε τις ενέργειες που επιτρέπουν τα επιλεγμένα δικαιώματα",
        "Actions": "Επιτρεπόμενες ενέργειες"
      }
    }
  },
  "components": [
    {
      "type": "fieldset",
      "components": [
        {
          "columns": [
            {
              "components": [
                {
                  "label": "Actions",
                  "labelPosition": "top",
                  "widget": "choicesjs",
                  "data": {
                    "values": [
                      {
                        "label": "Read",
                        "value": 1
                      },
                      {
                        "label": "Create",
                        "value": 2
                      },
                      {
                        "label": "Update",
                        "value": 4
                      },
                      {
                        "label": "Delete",
                        "value": 8
                      },
                      {
                        "label": "Execute",
                        "value": 16
                      }
                    ]
                  },
                  "validate": {
                    "required": true
                  },
                  "lazyLoad": false,
                  "key": "actions",
                  "type": "select",
                  "input": true,
                  "multiple": true,
                  "description": "Select the actions that the selected privileges will permit to the users"
                }
              ],
              "width": 8
            }
          ],
          "customClass": "text-dark",
          "hideLabel": true,
          "type": "columns",
          "input": false
        }
      ]
    }
  ],
  "width": 3
}
